mpic++  -std=c++11 -O3 -march=native -fopenmp jacobi2D-mpi.cpp  -o jacobi2D-mpi
mpic++  -std=c++11 -O3 -march=native -fopenmp file-io.cpp  -o file-io
mpic++  -std=c++11 -O3 -march=native -fopenmp jacobi2D-mpi-nonblocking.cpp  -o jacobi2D-mpi-nonblocking
mpic++  -std=c++11 -O3 -march=native -fopenmp ssort.cpp  -o ssort

Jacobi with Blocking
Size N = 128 running 10000 iterations with 1 threads 
Iter 9999: Residual: 5.38681
Time elapsed is 0.579209 seconds.
Size N = 256 running 10000 iterations with 4 threads 
Iter 9999: Residual: 98.7067
Time elapsed is 0.685993 seconds.
Size N = 512 running 10000 iterations with 16 threads 
Iter 9999: Residual: 353.42
Time elapsed is 0.785129 seconds.
Size N = 1024 running 10000 iterations with 64 threads 
Iter 9999: Residual: 865.42
Time elapsed is 0.880437 seconds.
Size N = 4096 running 10000 iterations with 64 threads 
Iter 9999: Residual: 3937.42
Time elapsed is 21.343450 seconds.
Size N = 4096 running 10000 iterations with 16 threads 
Iter 9999: Residual: 3937.42
Time elapsed is 104.362166 seconds.
Size N = 4096 running 10000 iterations with 4 threads 
Iter 9999: Residual: 3937.42
Time elapsed is 737.356849 seconds.
Size N = 4096 running 10000 iterations with 1 threads 
Iter 9999: Residual: 3937.42
Time elapsed is 3359.658075 seconds.

Jacobi with nonblocking
Size N = 128 running 10000 iterations with 1 threads 
Iter 9999: Residual: 5.38681
Time elapsed is 0.643818 seconds.
Size N = 256 running 10000 iterations with 4 threads 
Iter 9999: Residual: 98.7067
Time elapsed is 0.705424 seconds.
Size N = 512 running 10000 iterations with 16 threads 
Iter 9999: Residual: 353.42
Time elapsed is 0.775924 seconds.
Size N = 1024 running 10000 iterations with 64 threads 
Iter 9999: Residual: 865.42
Time elapsed is 0.802440 seconds.
Size N = 4096 running 10000 iterations with 64 threads 
Iter 9999: Residual: 3937.42
Time elapsed is 19.582157 seconds.
Size N = 4096 running 10000 iterations with 16 threads 
Iter 9999: Residual: 3937.42
Time elapsed is 103.598593 seconds.
Size N = 4096 running 10000 iterations with 4 threads 
Iter 9999: Residual: 3937.42
Time elapsed is 735.889220 seconds.
Size N = 4096 running 10000 iterations with 1 threads 
Iter 9999: Residual: 3937.42
Time elapsed is 3328.389858 seconds.

Parallized sample sort
Size N = 10000 on 64 threads 
Time elapsed is 0.788277 seconds.
Size N = 100000 on 64 threads 
Time elapsed is 0.850385 seconds.
Size N = 1000000 on 64 threads 
Time elapsed is 1.098426 seconds.
